<?xml version="1.0" encoding="UTF-8"?>
<svg width="752pt" height="752pt" version="1.1" viewBox="0 0 752 752" xmlns="http://www.w3.org/2000/svg">
 <path d="m266.48 524h60.887c4.793 33.457 33.594 59.195 68.363 59.195 33.18 0 60.922-23.449 67.562-54.668l41.637 2.7734c3.4336 18.301 19.504 32.164 38.793 32.164 21.785 0 39.465-17.68 39.465-39.465s-17.68-39.465-39.465-39.465c-17.453 0-32.281 11.355-37.48 27.082l-41.645-2.7812c-1.7266-22.715-14.465-42.367-32.875-53.645l64.535-150.59c5.7031 1.5312 11.691 2.3398 17.867 2.3398 1.2539 0 2.4961-0.03125 3.7305-0.097656l8.7031 43.488c-13.191 6.3828-22.301 19.91-22.301 35.539 0 21.785 17.68 39.465 39.465 39.465 21.785 0 39.465-17.68 39.465-39.465 0-21.043-16.516-38.27-37.281-39.406l-8.6953-43.48c26.777-9.5117 45.977-35.082 45.977-65.105 0-38.113-30.949-69.066-69.062-69.066-38.113 0-69.062 30.953-69.062 69.066 0 6.1758 0.80859 12.164 2.3359 17.867l-150.59 64.535c-2.4688-4.0273-5.3281-7.7852-8.5469-11.207l51.828-64.793c4.9336 2.2305 10.41 3.4609 16.172 3.4609 21.785 0 39.465-17.68 39.465-39.465 0-21.785-17.68-39.465-39.465-39.465-21.785 0-39.465 17.68-39.465 39.465 0 8.8828 2.9375 17.078 7.8906 23.672l-51.824 64.781c-10.262-6.0469-22.23-9.5234-34.996-9.5234-1.2539 0-2.4961 0.03125-3.7305 0.10156l-8.7031-43.492c13.191-6.3828 22.297-19.91 22.297-35.539 0-21.785-17.68-39.465-39.465-39.465-21.785 0-39.465 17.68-39.465 39.465 0 21.047 16.516 38.273 37.285 39.406l8.6914 43.48c-26.777 9.5117-45.977 35.086-45.977 65.109 0 38.113 30.953 69.062 69.066 69.062 15.5 0 29.816-5.1211 41.348-13.762l61.211 61.211c-6.7773 9.0352-11.387 19.789-13.062 31.48h-60.887c-4.5781-22.504-24.496-39.465-48.344-39.465-27.23 0-49.332 22.102-49.332 49.332 0 27.23 22.102 49.332 49.332 49.332 23.848 0 43.766-16.961 48.344-39.465zm188.7-250.13-150.59 64.535c1.5312 5.7031 2.3398 11.691 2.3398 17.867 0 15.5-5.1211 29.816-13.762 41.348l61.207 61.211c11.535-8.6406 25.852-13.762 41.352-13.762 6.1758 0 12.164 0.80859 17.867 2.3359l64.535-150.59c-9.3438-5.7227-17.227-13.605-22.949-22.949z" fill="#2595be" fill-rule="evenodd"/>
</svg>
