<?xml version="1.0" encoding="UTF-8"?>
<svg width="752pt" height="752pt" version="1.1" viewBox="0 0 752 752" xmlns="http://www.w3.org/2000/svg">
 <defs>
  <clipPath id="a">
   <path d="m139.21 482h473.58v56h-473.58z"/>
  </clipPath>
 </defs>
 <path d="m589.11 498.34h-426.22v-260.47c0.011719-13.074 10.605-23.668 23.68-23.68h378.86c13.07 0.011719 23.664 10.605 23.68 23.68zm-410.44-15.785h394.65v-244.68c-0.003906-4.3594-3.5352-7.8906-7.8945-7.8945h-378.86c-4.3594 0.003906-7.8867 3.5352-7.8945 7.8945z" fill="#2595be"/>
 <g clip-path="url(#a)">
  <path d="m555.79 537.81h-361.06c-3.7109 0.011718-7.3672-0.90234-10.637-2.6602l-35.227-19.223c-7.2344-3.5625-11.039-11.656-9.1602-19.5 2.2969-8.3633 10-14.082 18.672-13.863l434.42-0.003906c8.9531-0.39453 17.008 5.3867 19.5 13.992 1.8359 7.7148-1.9375 15.672-9.0781 19.129l-34.734 18.957c-3.9023 2.0977-8.2695 3.1875-12.699 3.1719zm-399.36-35.742 35.223 19.219c0.95312 0.49609 2.0117 0.75 3.082 0.73828h361.06c1.7891 0.011718 3.5547-0.41797 5.1406-1.2461l34.73-18.957c0.35547-0.19141 1.4727-0.85156 1.3281-1.4297-0.19531-0.78125-1.5195-2.0234-4.2578-2.0469h-433.89c-2.3828 0.039062-3.5859 0.96484-3.8047 1.8594-0.15625 0.64453 0.30859 1.2734 1.3906 1.8633z" fill="#2595be"/>
 </g>
 <path d="m403.17 537.81h-54.695c-6.4453-0.33203-11.996-4.6523-13.898-10.82l-17.77-44.43h118.03l-17.77 44.43c-1.9023 6.168-7.4531 10.488-13.898 10.82zm-53.496-15.785h52.297c0.17188-0.28906 0.31641-0.58984 0.4375-0.89844l9.1133-22.781h-71.398l9.1133 22.781c0.12109 0.30859 0.26562 0.60938 0.4375 0.89844z" fill="#2595be"/>
 <path d="m249.71 466.77h-47.359c-4.3594 0-7.8945-3.5312-7.8945-7.8906v-205.22c0-4.3594 3.5352-7.8945 7.8945-7.8945h47.359c4.3594 0 7.8906 3.5352 7.8906 7.8945v205.22c0 4.3594-3.5312 7.8906-7.8906 7.8906zm-39.465-15.785h31.57v-189.43h-31.57z" fill="#2595be"/>
 <path d="m549.65 308.91h-47.359c-4.3594 0-7.8906-3.5312-7.8906-7.8906v-47.359c0-4.3594 3.5312-7.8945 7.8906-7.8945h47.359c2.0938 0 4.1016 0.83203 5.582 2.3125s2.3125 3.4883 2.3086 5.582v47.359c0.003907 2.0898-0.82812 4.1016-2.3086 5.5781-1.4805 1.4805-3.4883 2.3125-5.582 2.3125zm-39.465-15.785h31.57v-31.574h-31.57z" fill="#2595be"/>
 <path d="m549.65 387.84h-47.359c-4.3594 0-7.8906-3.5312-7.8906-7.8906v-47.359c0-4.3594 3.5312-7.8945 7.8906-7.8945h47.359c2.0938 0 4.1016 0.83203 5.582 2.3125 1.4805 1.4805 2.3125 3.4883 2.3086 5.582v47.359c0.003907 2.0938-0.82812 4.1016-2.3086 5.582s-3.4883 2.3086-5.582 2.3086zm-39.465-15.785h31.57v-31.57h-31.57z" fill="#2595be"/>
 <path d="m549.65 466.77h-47.359c-4.3594 0-7.8906-3.5312-7.8906-7.8906v-47.359c0-4.3594 3.5312-7.8906 7.8906-7.8906h47.359c2.0938-0.003906 4.1016 0.82812 5.582 2.3086s2.3125 3.4883 2.3086 5.582v47.359c0.003907 2.0938-0.82812 4.1016-2.3086 5.582-1.4805 1.4805-3.4883 2.3125-5.582 2.3086zm-39.465-15.785h31.57v-31.57h-31.57z" fill="#2595be"/>
 <path d="m411.52 340.48h-71.035c-1.9336 0-3.8008-0.71094-5.2461-1.9922l-35.52-31.574c-1.6836-1.5-2.6484-3.6445-2.6484-5.8984 0-2.2578 0.96484-4.4023 2.6484-5.9023l35.52-31.57c1.4453-1.2852 3.3125-1.9961 5.2461-1.9961h71.035c1.9336 0 3.8008 0.71094 5.2461 1.9961l35.52 31.57c1.6836 1.5 2.6445 3.6445 2.6445 5.9023 0 2.2539-0.96094 4.3984-2.6445 5.8984l-35.52 31.574c-1.4453 1.2812-3.3125 1.9922-5.2461 1.9922zm-68.035-15.789h65.035l26.637-23.676-26.637-23.68h-65.035l-26.637 23.68z" fill="#2595be"/>
 <path d="m411.52 450.98h-71.035c-1.9336 0-3.8008-0.70703-5.2461-1.9922l-35.52-31.57c-2.1172-1.8711-3.0703-4.7344-2.5039-7.5 0.56641-2.7695 2.5703-5.0234 5.2539-5.9102 2.6797-0.89062 5.6328-0.27344 7.7422 1.6094l33.273 29.578h65.035l33.273-29.578c2.1055-1.8828 5.0586-2.5 7.7422-1.6094 2.6836 0.88672 4.6875 3.1406 5.2539 5.9102 0.56641 2.7656-0.38672 5.6289-2.5039 7.5l-35.52 31.57c-1.4453 1.2852-3.3125 1.9922-5.2461 1.9922z" fill="#2595be"/>
 <path d="m304.96 419.41c-4.3594 0-7.8945-3.5352-7.8945-7.8945v-110.5c0-4.3594 3.5352-7.8945 7.8945-7.8945s7.8906 3.5352 7.8906 7.8945v110.5c0 4.3594-3.5312 7.8945-7.8906 7.8945z" fill="#2595be"/>
 <path d="m447.04 419.41c-4.3594 0-7.8945-3.5352-7.8945-7.8945v-110.5c0-4.3594 3.5352-7.8945 7.8945-7.8945 4.3594 0 7.8906 3.5352 7.8906 7.8945v110.5c0 4.3594-3.5312 7.8945-7.8906 7.8945z" fill="#2595be"/>
 <path d="m407.57 450.98c-4.3594 0-7.8945-3.5312-7.8945-7.8906v-110.5c0-4.3594 3.5352-7.8945 7.8945-7.8945s7.8906 3.5352 7.8906 7.8945v110.5c0 4.3594-3.5312 7.8906-7.8906 7.8906z" fill="#2595be"/>
 <path d="m344.43 450.98c-4.3594 0-7.8945-3.5312-7.8945-7.8906v-110.5c0-4.3594 3.5352-7.8945 7.8945-7.8945 4.3594 0 7.8945 3.5352 7.8945 7.8945v110.5c0 4.3594-3.5352 7.8906-7.8945 7.8906z" fill="#2595be"/>
</svg>
